…
### Pre-analysis checks

Prior to conducting the primary analysis, it is advisable to assess the degree of multicollinearity among covariates. Variables that exhibit near-linear dependence (for example, “age” and “birth year”) can induce instability and inflate the variance of parameter estimates. To address this, we identify all pairs of covariates with absolute Pearson correlation coefficients $|r| ≥ 0.7$:


``` r
# Check for highly correlated covariates (|r| >= 0.7)
highly_correlated(df_clean, threshold = 0.7)
```

```
## # A tibble: 37 x 3
##    x        y                    r
##    <chr>    <chr>            <dbl>
##  1 age      cohort          -0.996
##  2 coninc   realinc          0.989
##  3 id       vstrat           0.981
##  4 prestg10 prestg105plus    0.980
##  5 sei10    sei10inc         0.943
##  6 sei10    sei10educ        0.932
##  7 degree   attend_college   0.900
##  8 padeg    father_college   0.894
##  9 madeg    mother_college   0.882
## 10 maborn   parents_born_us  0.868
## # i 27 more rows
```
…
This step addresses the central question: *Which factors determine why some individuals are more responsive to conservatism than others?* The `identify_moderators` function computes **variable importance scores**, which quantify the contribution of each covariate to explaining heterogeneity in treatment effects. A higher score indicates that the covariate plays a more substantial role in differentiating individuals with large treatment effects from those with relatively small effects.


``` r
# Identify which covariates drive heterogeneity
moderators <- identify_moderators(
  cate_results$causal_forest, 
  X
)

moderators$variable_importance
```

```
## # A tibble: 31 x 3
##    variable importance  rank
##    <chr>         <dbl> <int>
##  1 lkelyvot     0.313      1
##  2 income16     0.190      2
##  3 educ         0.120      3
##  4 prestg10     0.0672     4
##  5 age          0.0668     5
##  6 white        0.0354     6
##  7 compuse      0.0293     7
##  8 attend       0.0193     8
##  9 born         0.0184     9
## 10 pray         0.0173    10
## # i 21 more rows
```
…
